24

15
5
65
1
11
3

9
-1
64
7
3
4
-2
1
2
3
4
-1

10
6
8
4
3
2
-2
54
-1
-1
-1

4
54
28
-3
11
-1
-1

8
4
-1
1

69
9
-2
-1
1

9
8
5
5
-4
-3
-2
-1

25
15
2
3
-1
-1

8
-1
6
7
4
3
3
-5

3
8
1
-2
-2

7
4
9
70
-1
-1
-1

9
1
8
4
4
3
4
5
6
21
-5

10
7
8
54

12
5
4
17
2

2
4
5
9
-2

25
-1
33
12
4

6
73
3
-2
66

5
8
7
3
-4

3
9
9
7
2
-1
-1
-1
-2

70
4
3
28
5

120
-1
87
-1
17
-1
123
-1
40
-1
109

94
1
5
20
-3

9
2
6
6
4
4
5
6
7
-4
-2
-4
-1

2
4
5
6
7
5
5
43
-1
3
4
6
-5
-1
