24

121
-1
31
40
-2
-1
40
16
28
37

47
-1
34
-1
102
17
3
-2
-1
-1

119
-1
99
22
-1
95
3
-2
-2
13

79
-1
91
-1
87
-1
10
-1
71
15

61
-1
28
12
2
-3
-1
38
-2
36

79
-1
46
-1
116
-1
31
-1
27
31

74
-1
63
-1
119
3
-1
58
37
-3

42
-1
49
-1
33
-1
44
-1
18
4

84
-1
99
2
11
-1
21
-1
-2
-1

8
-1
121
-1
1
62
22
-2
57
-2

107
-1
4
-1
51
45
-2
50
-2
25

113
2
-2
-1
40
11
47
-1
-2
9

104
-1
84
-1
31
-1
76
-1
28
-1

58
-1
38
25
55
-1
-2
21
-2
93

66
37
-2
-1
80
4
16
-3
31
2

117
-1
67
28
-1
-1
43
30
-1
-1

7
54
-2
-1
97
9
12
3
-2
-3

112
-1
30
-1
8
77
-1
-1
72
47

7
109
4
-1
6
-2
-2
-1
42
44

54
-1
122
-1
108
-1
81
-1
117
3

15
-1
39
-1
29
27
-2
28
25
-3

97
21
-1
52
26
7
-3
-3
-1
5

122
-1
120
3
-2
-1
7
92
3
4

103
-1
31
-1
31
-1
121
-1
120
1
