24

77
-1
102
5
15
-3
-2
1
-2
6

7
-1
110
7
4
-2
7
-1
-1
-1

116
-1
79
-1
96
16
-2
24
-1
-1

82
-1
28
-1
69
52
-2
46
-1
-1

111
8
2
-1
28
11
64
5
-3
14

74
-1
55
-1
60
-1
6
20
-1
50

54
-1
110
2
9
-2
-2
9
1
-2

84
11
-2
-1
54
-1
94
-1
53
-1

48
-1
92
-1
57
-1
63
-1
34
4

109
8
-2
14
-2
-1
27
-1
25
-1

90
-1
5
-1
86
-1
58
-1
37
12

49
-1
99
-1
50
-1
63
-1
11
64

75
4
-1
-1
88
29
-1
21
55
10

117
-1
92
28
-2
16
-1
-1
20
-1

103
15
-2
5
12
-3
-1
82
6
-2

74
29
9
3
4
-5
5
-4
-4
4

82
-1
63
38
11
3
5
-5
5
-3

1
73
44
-3
14
-3
-2
-1
5
17

36
30
17
-1
-1
-1
77
-1
59
-1

96
21
-1
34
-1
-1
122
-1
109
-1

68
52
-2
43
2
-1
68
-2
10
12

49
47
15
4
-3
9
1
-1
-3
32

47
-1
95
-1
43
-1
31
69
-2
69

38
1
54
2
5
-4
-3
-3
51
5
