29

100

10
10
-1

20
40
-2

30
50
-2
60
-2
7

1
2
3
-3
-2
-1

3
2
3
-2
-1

3
2
-2
-1

17
97

17
97
-1
16

16
17
18
19
-1
-1
-1
-1

24
-1
23
-1
22
-1
21
-1

15
14
13
12
11
10
9
8
-8
-7

2
3
7
8
9
2
2
1
1
1
1
1
1
1

124

124
-1

30
30
30
-2
29

35
45

123

1
1
1
1
-1
-1
-1

60
20
-1
-1
2
2
2
-3

1
2
-2
3
4
-2
5
6
-2

44
-1
42
41
-1
40

2
6
8
10
12
14
-6
-5
-4
-3
-2
-1
1
2
3
4
5
6

45
20
1
2
-4
-2
20

52
50
-2

124
-1
18
17

20
11
2
4
5
6
8
-1
-3
-2

2
4
6
-2

1
1
1
1
1
1
1
1
1
1
1
1
1
-4
-6
