20

1
2
3
-1
-1
-1

8
8
8
8
-2
-2

8
25
-1
-1

2
4
5
8
4
9
4
60
-3
-6
-2
-1
-1

123

124

3
4
7
10
-3

3
4
7
10
-3
-2
-2

3
-1
7
10
-1
-1

2
4
6
8
10
12
14
-2
-2
-2
-2
2
4
6
8

40
40
40
-2
-2
1
2
3
4
-2

4
4
-2
4
60
3
-3
1
2
3
4
-1

3
8
2
1
8
2
-4
5
6
-3
3
2
6
-3
-3

1
4
1
4

3
2
5
2
1
-4
6
6
6
6
6
-3
2
2
4
4
4
5
5
5
5

30
-1
30
10
10
-2
-2
1
2
3
2

1
2
3
4
-4
1
2
3
4
-4
1
2
3
4
-1
-2
-3
-4

2
4
6
8
10
12
14
16
-3
-1
-5

10
10
10
5
5
1
1
1
-4
3
3
5

1
1
1
-2
3
3
5
