216 -32 -16 40 -32 -8 -72 520
80 -64 -8 24 -16 -40 -32 672
-48 -8 128 -48 728
-104 -72 40 -32 712
-80 128 -32 -16 72 -72 -16 -96 416
80 -32 -16 112 -104 608
64 -72 8 -56 760
128 -40 72 -32 688
72 -112 24 -8 16 -40 -16 -32 -56 -104 432
-16 128 -64 -8 -120 -32 -96 472
136 -40 112 -120 552
-32 -120 288 -80 440
-112 352 -88 -88 -64 248
312 -112 -64 -112 360
-56 464 -56 392
104 -24 848
-72 -88 -112 232 -160 -64 216
56 -96 -24 32 -112 -40 584
64 -160 752
-96 888
