26

5

5
3

5
3
-1

5
3
3
-1
-1

1

2
1

3
2
1
-2

4
2
3
3
-2
4
7

6
2
-1
2
2
7
-3

100
-1

1
1
1
1
-3

1
1
1
1
-1
-1
-1
-1

1
2
3
4
5
-1
-1
-1
-1

1
2
3
4
5
6
7
8
9

10
10
10
10
10
10
10
-2
-3
-1

3
7
-2
10
-1

1
2
3
4
5
6
7
-4
-3
-2
-1

1
1
-1

1
2
1
2
1
2
1
2
1
2
1
2
1

1
1
1
1
1
1
1
1
1
1
1

10
9
8
7
6
5
4
3
2
1

13
11
7
3
2
-3
-2
-1

1
-1
1
1
-2
1
1
1
-3

5
-1
1
1
1
-2
1
1
-2

1
2
3

1
2
3
4
5
6
7
8
9
10
11
12
13
14
-5
-4
-3
-2
-1
