-56 -24 -32 -40 -40 760
-40 48 -16 -24 -32 792
40 -16 -40 872
-40 24 -24 -48 824
-16 -16 -24 -16 -40 -32 800
-40 -48 -56 824
-8 -48 -24 -48 -24 800
992
-16 -32 40 -48 824
-56 64 -40 -32 768
-8 8 -16 -16 56 -48 -16 768
40 -80 856
-24 -24 -40 48 -32 784
-24 16 -32 -40 848
-8 -24 -64 32 -16 808
-56 -32 -72 808
-16 -16 -24 -32 -40 -32 -16 760
-16 32 -40 -48 -56 -16 736
-16 -32 -24 -16 -40 824
56 -16 -24 872
-48 24 -32 864
-16 -40 -16 -40 848
-96 16 -24 832
-8 -16 -24 -16 8 -40 -48 -56 -16 688
-16 -32 16 -16 -64 808
